{
  "shell_port": 46655,
  "iopub_port": 47745,
  "stdin_port": 45683,
  "control_port": 46187,
  "hb_port": 38269,
  "ip": "127.0.0.1",
  "key": "56a950e8-68c7bf7109bf97631570eda8",
  "transport": "tcp",
  "signature_scheme": "hmac-sha256",
  "kernel_name": ""
}